<svg width="24" height="24" viewBox="0 0 24 24" fill="none" xmlns="http://www.w3.org/2000/svg">
<rect width="24" height="24" fill="#F5F5F5"/>
<rect x="-379" y="-445" width="1469" height="1537" rx="24" fill="white"/>
<g filter="url(#filter0_d_0_1)">
<rect width="250" height="1024" transform="translate(-239 -29)" fill="white"/>
</g>
<circle cx="12" cy="12" r="12" fill="#4A49CB"/>
<path d="M14.5 17L9.5 12L14.5 7" stroke="white" stroke-width="2" stroke-linecap="round" stroke-linejoin="round"/>
<rect x="-258.5" y="-48.5" width="1188" height="1063" rx="4.5" stroke="#7B61FF" stroke-dasharray="10 5"/>
<defs>
<filter id="filter0_d_0_1" x="-239" y="-29" width="251" height="1024" filterUnits="userSpaceOnUse" color-interpolation-filters="sRGB">
<feFlood flood-opacity="0" result="BackgroundImageFix"/>
<feColorMatrix in="SourceAlpha" type="matrix" values="0 0 0 0 0 0 0 0 0 0 0 0 0 0 0 0 0 0 127 0" result="hardAlpha"/>
<feOffset dx="1"/>
<feComposite in2="hardAlpha" operator="out"/>
<feColorMatrix type="matrix" values="0 0 0 0 0.870833 0 0 0 0 0.870833 0 0 0 0 0.870833 0 0 0 1 0"/>
<feBlend mode="normal" in2="BackgroundImageFix" result="effect1_dropShadow_0_1"/>
<feBlend mode="normal" in="SourceGraphic" in2="effect1_dropShadow_0_1" result="shape"/>
</filter>
</defs>
</svg>
